# Omega x = 14
-1.0	-0.5124
-0.9	-0.4151
-0.8	-0.3731
-0.7	-0.3767
-0.6	-0.3515
-0.5	-0.2891
-0.4	-0.1846
-0.3	-0.0562
-0.2	0.0867
-0.1	0.2175
0.00	0.3196
0.10	0.3724
0.20	0.3664
0.30	0.3196
0.40	0.2511
0.50	0.1815
0.60	0.1203
0.70	0.0591
0.80	0.0026
0.90	-0.0538
1.00	-0.109