# U x = 30
-1.0	0.0
-0.9	0.109
-0.8	0.2188
-0.7	0.3286
-0.6	0.4384
-0.5	0.5481
-0.4	0.6528
-0.3	0.739
-0.2	0.8048
-0.1	0.8454
0.00	0.8538
0.10	0.8302
0.20	0.7761
0.30	0.7018
0.40	0.6106
0.50	0.5093
0.60	0.4113
0.70	0.3016
0.80	0.2002
0.90	0.1023
1.00	0.0
