# U x = 14
-1.0	0.0
-0.9	0.234
-0.8	0.4265
-0.7	0.6174
-0.6	0.793
-0.5	0.9467
-0.4	1.0615
-0.3	1.1156
-0.2	1.1004
-0.1	1.0244
-0.0	0.8842
0.1 	0.7069
0.2 	0.5211
0.30	0.3472
0.40	0.2002
0.50	0.0871
0.60	0.0179
0.70	-0.0328
0.80	-0.0463
0.90	-0.0396
1.00	0.0