# V x = 14
-1.0	0.0
-0.9	-0.0012
-0.8	-0.005
-0.7	-0.0101
-0.6	-0.0143
-0.5	-0.0175
-0.4	-0.0192
-0.3	-0.0192
-0.2	-0.0178
-0.1	-0.0151
0.00	-0.0116
0.10	-0.0083
0.20	-0.0055
0.30	-0.0036
0.40	-0.0028
0.50	-0.0022
0.60	-0.0019
0.70	-0.0014
0.80	-0.0009
0.90	-0.0003
1.00	0.0